%YAML 1.1
%TAG !u! tag:unity3d.com,2011:
--- !u!114 &11400000
MonoBehaviour:
  m_ObjectHideFlags: 0
  m_CorrespondingSourceObject: {fileID: 0}
  m_PrefabInstance: {fileID: 0}
  m_PrefabAsset: {fileID: 0}
  m_GameObject: {fileID: 0}
  m_Enabled: 1
  m_EditorHideFlags: 0
  m_Script: {fileID: 11500000, guid: 5be51871efa6c3e4eae1703925c8f5ac, type: 3}
  m_Name: EditionsLocalization
  m_EditorClassIdentifier: 
  m_SharedTableData: {fileID: 11400000, guid: ec4bc888488df314b92f6b3736bf01d9, type: 2}
  m_Tables:
  - {fileID: 11400000, guid: 8f482afa869bbbb4e84a7735ab15ffde, type: 2}
  - {fileID: 11400000, guid: 590d9679cb9cb6145b5fcbf124db1e3b, type: 2}
  - {fileID: 11400000, guid: 7d0523c5a8adb184f85ff39d1038ee22, type: 2}
  - {fileID: 11400000, guid: 04eacf28ad346f8438d8f9897aa696c8, type: 2}
  - {fileID: 11400000, guid: 17f99196200b4904fb95aa9486f62bab, type: 2}
  - {fileID: 11400000, guid: 7c31b69afcd6be84c9c7c541ed7b232a, type: 2}
  - {fileID: 11400000, guid: 81ad522527eed62449efc8fd0169f2b3, type: 2}
  m_Extensions: []
  m_Group: String Table
  references:
    version: 2
    RefIds: []
