%YAML 1.1
%TAG !u! tag:unity3d.com,2011:
--- !u!114 &11400000
MonoBehaviour:
  m_ObjectHideFlags: 0
  m_CorrespondingSourceObject: {fileID: 0}
  m_PrefabInstance: {fileID: 0}
  m_PrefabAsset: {fileID: 0}
  m_GameObject: {fileID: 0}
  m_Enabled: 1
  m_EditorHideFlags: 0
  m_Script: {fileID: 11500000, guid: bbb281ee3bf0b054c82ac2347e9e782c, type: 3}
  m_Name: Localization-String-Tables-French (fr)
  m_EditorClassIdentifier: 
  m_GroupName: Localization-String-Tables-French (fr)
  m_Data:
    m_SerializedData: []
  m_GUID: ce20fdb3c65b5544fb18eefc69c095bf
  m_SerializeEntries:
  - m_GUID: 590d9679cb9cb6145b5fcbf124db1e3b
    m_Address: EditionsLocalization_fr
    m_ReadOnly: 1
    m_SerializedLabels:
    - Locale-fr
    FlaggedDuringContentUpdateRestriction: 0
  m_ReadOnly: 1
  m_Settings: {fileID: 11400000, guid: 80e7cdfc02035d849a7e78259219279a, type: 2}
  m_SchemaSet:
    m_Schemas:
    - {fileID: 11400000, guid: 85d65a73b7970b843ac238d29b4e0c3a, type: 2}
    - {fileID: 11400000, guid: 7d7950c441a6aae45925a7c6afe04b79, type: 2}
