%YAML 1.1
%TAG !u! tag:unity3d.com,2011:
--- !u!114 &11400000
MonoBehaviour:
  m_ObjectHideFlags: 0
  m_CorrespondingSourceObject: {fileID: 0}
  m_PrefabInstance: {fileID: 0}
  m_PrefabAsset: {fileID: 0}
  m_GameObject: {fileID: 0}
  m_Enabled: 1
  m_EditorHideFlags: 0
  m_Script: {fileID: 11500000, guid: bbb281ee3bf0b054c82ac2347e9e782c, type: 3}
  m_Name: Localization-String-Tables-German (de)
  m_EditorClassIdentifier: 
  m_GroupName: Localization-String-Tables-German (de)
  m_Data:
    m_SerializedData: []
  m_GUID: 5a505edcb3347384fbf009170c3c9082
  m_SerializeEntries:
  - m_GUID: 7d0523c5a8adb184f85ff39d1038ee22
    m_Address: EditionsLocalization_de
    m_ReadOnly: 1
    m_SerializedLabels:
    - Locale-de
    FlaggedDuringContentUpdateRestriction: 0
  m_ReadOnly: 1
  m_Settings: {fileID: 11400000, guid: 80e7cdfc02035d849a7e78259219279a, type: 2}
  m_SchemaSet:
    m_Schemas:
    - {fileID: 11400000, guid: 97ccc819a4bd2cd40be00e7155949209, type: 2}
    - {fileID: 11400000, guid: 06e27e53fe43ab8429e1ce21081ac6c6, type: 2}
